{
	"info": {
		"_postman_id": "4a75139d-0fd5-4d63-9dd6-adafca4d2323",
		"name": "API Productos V1",
		"schema": "https://schema.getpostman.com/json/collection/v2.1.0/collection.json"
	},
	"item": [
		{
			"name": "Obtener Productos",
			"request": {
				"method": "GET",
				"header": [],
				"url": {
					"raw": "{{PRODSv1}}",
					"host": [
						"{{PRODSv1}}"
					]
				}
			},
			"response": []
		},
		{
			"name": "Obtener Producto 1",
			"request": {
				"method": "GET",
				"header": [],
				"url": {
					"raw": "{{PRODSv1}}/1",
					"host": [
						"{{PRODSv1}}"
					],
					"path": [
						"1"
					]
				}
			},
			"response": []
		},
		{
			"name": "Obtener Producto 5",
			"request": {
				"method": "GET",
				"header": [],
				"url": {
					"raw": "{{PRODSv1}}/5",
					"host": [
						"{{PRODSv1}}"
					],
					"path": [
						"5"
					]
				}
			},
			"response": []
		},
		{
			"name": "Agregar Zapatillas",
			"request": {
				"method": "POST",
				"header": [],
				"body": {
					"mode": "raw",
					"raw": "{\n\"id\" : 7899,\n\"nombre\" : \"Zapatillas\",\n\"precio\" : 7777,\n\"cantidad\" : 349\n}",
					"options": {
						"raw": {
							"language": "json"
						}
					}
				},
				"url": {
					"raw": "{{PRODSv1}}",
					"host": [
						"{{PRODSv1}}"
					]
				}
			},
			"response": []
		},
		{
			"name": "Agregar Campera",
			"request": {
				"method": "POST",
				"header": [],
				"body": {
					"mode": "raw",
					"raw": "{\n\"nombre\" : \"Campera\",\n\"precio\" : 7384,\n\"cantidad\" : 129\n}",
					"options": {
						"raw": {
							"language": "json"
						}
					}
				},
				"url": {
					"raw": "{{PRODSv1}}",
					"host": [
						"{{PRODSv1}}"
					]
				}
			},
			"response": []
		},
		{
			"name": "Borrar Producto 1",
			"request": {
				"method": "DELETE",
				"header": [],
				"url": {
					"raw": "{{PRODSv1}}/1",
					"host": [
						"{{PRODSv1}}"
					],
					"path": [
						"1"
					]
				}
			},
			"response": []
		},
		{
			"name": "Reemplazar Producto 1",
			"request": {
				"method": "PUT",
				"header": [],
				"body": {
					"mode": "raw",
					"raw": "{\n    \"nombre\" : \"Remera\",\n    \"precio\" : 2999,\n    \"cantidad\" : 378\n}",
					"options": {
						"raw": {
							"language": "json"
						}
					}
				},
				"url": {
					"raw": "{{PRODSv1}}/1",
					"host": [
						"{{PRODSv1}}"
					],
					"path": [
						"1"
					]
				}
			},
			"response": []
		},
		{
			"name": "Emparachar Producto 1",
			"request": {
				"method": "PATCH",
				"header": [],
				"body": {
					"mode": "raw",
					"raw": "{\n    \"operacion\" : \"reemplazar-precio\",\n    \"precio\" : 399\n}",
					"options": {
						"raw": {
							"language": "json"
						}
					}
				},
				"url": {
					"raw": "{{PRODSv1}}/1",
					"host": [
						"{{PRODSv1}}"
					],
					"path": [
						"1"
					]
				}
			},
			"response": []
		}
	]
}